<?xml version="1.0" encoding="UTF-8" standalone="no"?>
<!-- Created with Inkscape (http://www.inkscape.org/) -->

<svg
   xmlns:dc="http://purl.org/dc/elements/1.1/"
   xmlns:cc="http://creativecommons.org/ns#"
   xmlns:rdf="http://www.w3.org/1999/02/22-rdf-syntax-ns#"
   xmlns:svg="http://www.w3.org/2000/svg"
   xmlns="http://www.w3.org/2000/svg"
   xmlns:xlink="http://www.w3.org/1999/xlink"
   xmlns:sodipodi="http://sodipodi.sourceforge.net/DTD/sodipodi-0.dtd"
   xmlns:inkscape="http://www.inkscape.org/namespaces/inkscape"
   width="48"
   height="48"
   id="svg3012"
   version="1.1"
   inkscape:version="0.92.4 (5da689c313, 2019-01-14)"
   sodipodi:docname="error.svg"
   inkscape:export-xdpi="247.5"
   inkscape:export-ydpi="247.5">
  <defs
     id="defs3014" />
  <sodipodi:namedview
     id="base"
     pagecolor="#808080"
     bordercolor="#666666"
     borderopacity="1.0"
     inkscape:pageopacity="0"
     inkscape:pageshadow="2"
     inkscape:zoom="5.656854"
     inkscape:cx="41.655877"
     inkscape:cy="28.377474"
     inkscape:current-layer="layer2"
     showgrid="true"
     inkscape:grid-bbox="true"
     inkscape:document-units="px"
     inkscape:window-width="1920"
     inkscape:window-height="1017"
     inkscape:window-x="-8"
     inkscape:window-y="-8"
     inkscape:window-maximized="1" />
  <metadata
     id="metadata3017">
    <rdf:RDF>
      <cc:Work
         rdf:about="">
        <dc:format>image/svg+xml</dc:format>
        <dc:type
           rdf:resource="http://purl.org/dc/dcmitype/StillImage" />
        <dc:title></dc:title>
      </cc:Work>
    </rdf:RDF>
  </metadata>
  <g
     inkscape:groupmode="layer"
     id="layer2"
     inkscape:label="Bottle"
     style="display:inline">
    <g
       id="g5105"
       transform="translate(-5.0000001e-8,6.1052064)">
      <path
         inkscape:connector-curvature="0"
         id="path4137"
         d="m 24,7.5585938 c -3.1764,0.024108 -10.227304,0.3987031 -9.324219,1.9628906 1.286423,2.2281516 5.398438,2.9453126 5.398438,2.9453126 v 6.378906 l -8.048828,13.744141 c 0,0 -2.2578129,3.298022 -2.2578129,4.416015 0,3.408881 2.9433599,3.435547 2.9433599,3.435547 h 22.578124 c 10e-7,0 2.94336,-0.04019 2.94336,-3.435547 0,-1.155416 -2.257813,-4.416015 -2.257813,-4.416015 L 27.925781,18.845703 v -6.378906 c 0,0 4.038245,-0.735872 5.398438,-3.091797 C 34.255968,7.7611621 27.166646,7.5345597 24,7.5585938 Z"
         style="color:#000000;clip-rule:nonzero;display:inline;overflow:visible;visibility:visible;opacity:1;isolation:auto;mix-blend-mode:normal;color-interpolation:sRGB;color-interpolation-filters:linearRGB;solid-color:#000000;solid-opacity:1;fill:#ffffff;fill-opacity:1;fill-rule:nonzero;stroke:#000000;stroke-width:0.5;stroke-linecap:round;stroke-linejoin:miter;stroke-miterlimit:4;stroke-dasharray:none;stroke-dashoffset:13.75;stroke-opacity:1;color-rendering:auto;image-rendering:auto;shape-rendering:auto;text-rendering:auto;enable-background:accumulate" />
      <path
         sodipodi:nodetypes="ccccccccc"
         inkscape:connector-curvature="0"
         id="path4225"
         d="m 19.177014,23.818605 -5.62172,9.38157 c 0,0 -1.443142,2.146277 -1.827705,3.375642 -0.191575,0.728225 0.54027,1.998823 1.605673,1.831731 h 21.512995 c 1.180122,-0.01614 1.755354,-1.460227 1.279538,-2.300298 -1.523977,-2.609547 -1.580415,-2.710057 -1.580415,-2.710057 l -5.722394,-9.578584 z"
         style="display:inline;fill:#9b0bed;fill-opacity:1;fill-rule:evenodd;stroke:none;stroke-width:0.94475728px;stroke-linecap:butt;stroke-linejoin:miter;stroke-opacity:1" />
    </g>
  </g>
  <g
     inkscape:groupmode="layer"
     id="layer4"
     inkscape:label="Bubbles"
     style="display:inline">
    <g
       id="g5125"
       transform="translate(0,-1.4533876)">
      <circle
         r="2.8284273"
         cy="11.760776"
         cx="10.076273"
         id="path5107"
         style="opacity:1;vector-effect:none;fill:#9b0bed;fill-opacity:0.50196078;stroke:none;stroke-width:5;stroke-linecap:round;stroke-linejoin:round;stroke-miterlimit:4;stroke-dasharray:none;stroke-dashoffset:0;stroke-opacity:1" />
      <use
         style="stroke-width:0.72727275"
         height="100%"
         width="100%"
         transform="matrix(1.375,0,0,1.375,6.2976699,-1.7586401)"
         id="use5109"
         xlink:href="#path5107"
         y="0"
         x="0" />
      <use
         style="stroke-width:0.63999999"
         height="100%"
         width="100%"
         transform="matrix(1.5625,0,0,1.5625,11.744602,-11.300019)"
         id="use5111"
         xlink:href="#path5107"
         y="0"
         x="0" />
      <use
         style="stroke-width:0.969697"
         height="100%"
         width="100%"
         transform="matrix(1.03125,0,0,1.03125,29.737155,5.5544953)"
         id="use5113"
         xlink:href="#path5107"
         y="0"
         x="0" />
      <use
         style="stroke-width:0.63999999"
         height="100%"
         width="100%"
         transform="matrix(1.5625,0,0,1.5625,2.3754368,-8.0296497)"
         id="use5115"
         xlink:href="#path5107"
         y="0"
         x="0" />
      <use
         height="100%"
         width="100%"
         transform="translate(12.551146,-0.44194176)"
         id="use5117"
         xlink:href="#path5107"
         y="0"
         x="0" />
    </g>
  </g>
</svg>
